…
Jo mere kompleks en funktion bliver, desto mere mening giver det at definere den uden for `map()`-funktionen:


```r
my_function <- ~(.x - mean(.x))^2 + 0.5*(.x - sd(.x))^2 #en lang, meningsløs funktion

iris %>%
  select(-Species) %>%
  map_df(my_function) #beregn my_function for hver kolonne og output en dataramme 
```

```
#> # A tibble: 150 × 4
#>    Sepal.Length Sepal.Width Petal.Length Petal.Width
#>           <dbl>       <dbl>        <dbl>       <dbl>
#>  1         9.68        4.89         5.63       1.16 
#>  2         9.18        3.29         5.63       1.16 
#>  3         8.80        3.84         6.15       1.16 
#>  4         8.66        3.55         5.13       1.16 
#>  5         9.41        5.30         5.63       1.16 
#>  6        10.6         6.71         4.24       0.705
#>  7         8.66        4.51         5.63       0.916
#>  8         9.41        4.51         5.13       1.16 
#>  9         8.46        3.06         5.63       1.16 
#> 10         9.18        3.55         5.13       1.43 
#> # ℹ 140 more rows
```
…
<img src="07-videre1_files/figure-html/unnamed-chunk-48-1.svg" width="384" style="display: block; margin: auto;" />

Der er flere `map` funktion der tager flere `input` fk. `pmap` - jeg har ikke tid til at dække dem  men du kan godt læse om dem hvis du har bruge for dem: https://purrr.tidyverse.org/reference/map2.html

### Transformering af numeriske variabler

Som en sidste bemærkning, her er en nyttig variant af `map` - her kan man udføre en operation på kun bestemte variabler - for eksempel anvender jeg i det følgende funktionen `log2()` på alle numeriske variabler. Bemærk, at man er nødt til at anvende `as_tibble()` igen bagefter (som kun fungerer, hvis alle variabler stadig har samme længde efter `map_if()`):


```r
eukaryotes %>% map_if(is.numeric,~log2(.x)) %>% as_tibble()
```

```
#> # A tibble: 11,508 × 19
#>    organism_name taxid bioproject_accession bioproject_id group subgroup size_mb
#>    <chr>         <dbl> <chr>                        <dbl> <chr> <chr>      <dbl>
#>  1 Pyropia yezo…  11.4 PRJNA589917                  19.2  Other Other       6.75
#>  2 Emiliania hu…  18.1 PRJNA77753                   16.2  Prot… Other P…    7.39
#>  3 Arabidopsis …  11.9 PRJNA10719                   13.4  Plan… Land Pl…    6.90
#>  4 Glycine max    11.9 PRJNA19861                   14.3  Plan… Land Pl…    9.94
#>  5 Medicago tru…  11.9 PRJNA10791                   13.4  Plan… Land Pl…    8.69
#>  6 Solanum lyco…  12.0 PRJNA119                      6.89 Plan… Land Pl…    9.69
#>  7 Hordeum vulg…  16.8 PRJEB34217                   19.1  Plan… Land Pl…   12.1 
#>  8 Oryza sativa…  15.3 PRJNA12269                   13.6  Plan… Land Pl…    8.55
#>  9 Triticum aes…  12.2 PRJNA392179                  18.6  Plan… Land Pl…   13.9 
#> 10 Zea mays       12.2 PRJNA10769                   13.4  Plan… Land Pl…   11.1 
#> # ℹ 11,498 more rows
#> # ℹ 12 more variables: gc <dbl>, assembly_accession <chr>, replicons <chr>,
#> #   wgs <chr>, scaffolds <dbl>, genes <dbl>, proteins <dbl>,
#> #   release_date <date>, modify_date <date>, status <chr>, center <chr>,
#> #   biosample_accession <chr>
```
…
