…
## Case studies: Anscombes kvartet

(Se også videoressourcer Del 3).

Anscombes kvartet (se også https://en.wikipedia.org/wiki/Anscombe%27s_quartet) er et meget nyttigt og berømt eksempel fra 1973, der fremhæver vigtigheden af at visualisere datasættet. Vi kan hente dataene fra linket nedenfor - der er x-værdier og y-værdier, som kan anvendes til at lave et scatterplot, og der er også `set`, der refererer til fire forskellige datasæt (derfor 'kvartet').


``` r
anscombe <- read.table("https://www.dropbox.com/s/mlt7crdik3eih9a/anscombe_long_format.txt?dl=1",header=T)
anscombe <- anscombe %>% tibble()
anscombe
```

```
#> # A tibble: 44 × 3
#>      set     x     y
#>    <int> <int> <dbl>
#>  1     1    10  8.04
#>  2     1     8  6.95
#>  3     1    13  7.58
#>  4     1     9  8.81
#>  5     1    11  8.33
#>  6     1    14  9.96
#>  7     1     6  7.24
#>  8     1     4  4.26
#>  9     1    12 10.8 
#> 10     1     7  4.82
#> # ℹ 34 more rows
```
…
Jeg begynder med at vælge kun de rækker, der har mindst 50 counts, for at undgå gener med lave ekspressionsniveauer. Det næste jeg gør er at transformere dataene til logaritmisk form (funktion `map_if()`) for at opnå en bedre fordeling i datasættet.


``` r
#normalisere og filtrere dataene
norm.cts <- norm.cts %>% 
  filter(rowSums(norm.cts %>% select(-gene))>50) %>% 
  map_if(is.numeric,~log(.x+1)) %>% as_tibble()

norm.cts
```

```
#> # A tibble: 10,193 × 22
#>    gene    SRX033480 SRX033488 SRX033481 SRX033489 SRX033482 SRX033490 SRX033483
#>    <chr>       <dbl>     <dbl>     <dbl>     <dbl>     <dbl>     <dbl>     <dbl>
#>  1 ENSMUS…      6.35      6.32      6.21      6.29      6.31      6.27      6.30
#>  2 ENSMUS…      3.51      3.56      3.57      3.27      2.99      3.61      3.56
#>  3 ENSMUS…      3.19      3.50      3.08      3.21      3.14      3.09      3.22
#>  4 ENSMUS…      6.69      6.48      6.38      6.35      6.39      6.34      6.50
#>  5 ENSMUS…      6.05      6.37      6.17      6.26      6.16      6.06      6.13
#>  6 ENSMUS…      2.89      2.94      3.16      3.21      3.77      3.30      3.11
#>  7 ENSMUS…      3.42      3.12      3.86      4.36      3.77      3.99      4.24
#>  8 ENSMUS…      3.42      2.94      3.52      3.41      3.57      3.60      2.99
#>  9 ENSMUS…      5.02      4.98      4.49      4.27      4.67      4.35      4.81
#> 10 ENSMUS…      5.13      4.88      4.97      4.76      4.82      4.79      4.96
#> # ℹ 10,183 more rows
#> # ℹ 14 more variables: SRX033476 <dbl>, SRX033478 <dbl>, SRX033479 <dbl>,
#> #   SRX033472 <dbl>, SRX033473 <dbl>, SRX033474 <dbl>, SRX033475 <dbl>,
#> #   SRX033491 <dbl>, SRX033484 <dbl>, SRX033492 <dbl>, SRX033485 <dbl>,
#> #   SRX033493 <dbl>, SRX033486 <dbl>, SRX033494 <dbl>
```

Så der er omkring 10.000 gener i rækkerne, og der er 21 forskellige prøver, der spreder sig over kolonnerne. Vi har også nogle prøveoplysninger - der er to forskellige stammer af mus og også forskellige batches, som vi gerne vil undersøge nærmere.


``` r
coldata
```

```
#> # A tibble: 21 × 5
#>    column    num.tech.reps strain   batch lane.number
#>    <chr>             <int> <chr>    <int>       <int>
#>  1 SRX033480             1 C57BL.6J     6           1
#>  2 SRX033488             1 C57BL.6J     7           1
#>  3 SRX033481             1 C57BL.6J     6           2
#>  4 SRX033489             1 C57BL.6J     7           2
#>  5 SRX033482             1 C57BL.6J     6           3
#>  6 SRX033490             1 C57BL.6J     7           3
#>  7 SRX033483             1 C57BL.6J     6           5
#>  8 SRX033476             1 C57BL.6J     4           6
#>  9 SRX033478             1 C57BL.6J     4           7
#> 10 SRX033479             1 C57BL.6J     4           8
#> # ℹ 11 more rows
```
…
### Principal component analyse

Man kan undersøge mulige batch-effekter via principal component analyse. 

Først skal vi lave en "transpose" af datasættet således at variablerne (samples) bliver i rækkerne og observationerne (genes) er som kolonnerne. Det er ikke helt ligetil i tidyverse, men her er en måde at gøre det på:


``` r
norm.cts.transpose <- as_tibble(t(norm.cts[,-1]))
colnames(norm.cts.transpose) <- norm.cts %>% pull(gene)
norm.cts.transpose %>% mutate(sample = colnames(norm.cts)[-1],.before=1)
```

```
#> # A tibble: 21 × 10,194
#>    sample    ENSMUSG00000000001 ENSMUSG00000000056 ENSMUSG00000000058
#>    <chr>                  <dbl>              <dbl>              <dbl>
#>  1 SRX033480               6.35               3.51               3.19
#>  2 SRX033488               6.32               3.56               3.50
#>  3 SRX033481               6.21               3.57               3.08
#>  4 SRX033489               6.29               3.27               3.21
#>  5 SRX033482               6.31               2.99               3.14
#>  6 SRX033490               6.27               3.61               3.09
#>  7 SRX033483               6.30               3.56               3.22
#>  8 SRX033476               6.03               3.69               2.83
#>  9 SRX033478               6.30               3.42               3.73
#> 10 SRX033479               5.88               3.98               3.24
#> # ℹ 11 more rows
#> # ℹ 10,190 more variables: ENSMUSG00000000078 <dbl>, ENSMUSG00000000088 <dbl>,
#> #   ENSMUSG00000000093 <dbl>, ENSMUSG00000000120 <dbl>,
#> #   ENSMUSG00000000125 <dbl>, ENSMUSG00000000126 <dbl>,
#> #   ENSMUSG00000000127 <dbl>, ENSMUSG00000000131 <dbl>,
#> #   ENSMUSG00000000149 <dbl>, ENSMUSG00000000167 <dbl>,
#> #   ENSMUSG00000000168 <dbl>, ENSMUSG00000000171 <dbl>, …
```
…
